[gd_resource type="Theme" load_steps=3 format=3 uid="uid://b0ukm1yauu45l"]

[sub_resource type="StyleBoxFlat" id="StyleBoxFlat_lsnv7"]
bg_color = Color(0.403922, 0.619608, 0.835294, 1)

[sub_resource type="StyleBoxLine" id="StyleBoxLine_m6c4q"]
color = Color(0.513726, 0.321569, 0.184314, 1)
thickness = 5

[resource]
Button/styles/normal = SubResource("StyleBoxFlat_lsnv7")
HFlowContainer/constants/h_separation = 0
HFlowContainer/constants/v_separation = 0
HSeparator/constants/separation = 4
HSeparator/styles/separator = SubResource("StyleBoxLine_m6c4q")
LinkButton/colors/font_color = Color(0, 0, 0, 1)
LinkButton/colors/font_outline_color = Color(0.741176, 0.737255, 0.737255, 1)
LinkButton/constants/outline_size = 1
MarginContainer/constants/margin_bottom = 14
MarginContainer/constants/margin_left = 14
MarginContainer/constants/margin_right = 14
MarginContainer/constants/margin_top = 14
TitleLabel/base_type = &"Label"
TitleLabel/colors/font_shadow_color = Color(0, 0, 0, 1)
TitleLabel/constants/shadow_offset_x = 2
TitleLabel/constants/shadow_offset_y = 1
TitleLabel/font_sizes/font_size = 20
TitleLineEdit/base_type = &"LineEdit"
TitleLineEdit/colors/font_outline_color = Color(0, 0, 0, 1)
TitleLineEdit/constants/outline_size = 1
TitleLineEdit/font_sizes/font_size = 24
VBoxContainer/constants/separation = 4
